\relax 
\citation{wiki_svm}
\@writefile{loa}{\addvspace {10\p@ }}
\@writefile{toc}{\contentsline {chapter}{\numberline {3}Classifier}{8}{chapter.8}}
\@writefile{lof}{\addvspace {10\p@ }}
\@writefile{lot}{\addvspace {10\p@ }}
\@writefile{lol}{\addvspace {10\p@ }}
\@writefile{toc}{\contentsline {section}{\numberline {3.1}Classification}{8}{section.9}}
\@writefile{toc}{\contentsline {section}{\numberline {3.2}SVM}{8}{section.10}}
\citation{wiki_naive}
\@writefile{toc}{\contentsline {subsection}{\numberline {3.2.1}PegaSoS}{9}{subsection.11}}
\@writefile{toc}{\contentsline {subsection}{\numberline {3.2.2}DCD}{9}{subsection.12}}
\@writefile{toc}{\contentsline {section}{\numberline {3.3}Bayesian}{9}{section.13}}
\@writefile{toc}{\contentsline {subsection}{\numberline {3.3.1}Naive}{9}{subsection.14}}
\citation{wiki_multi}
\@writefile{toc}{\contentsline {subsection}{\numberline {3.3.2}MultiNominal}{10}{subsection.15}}
\@setckpt{Classification}{
\setcounter{page}{12}
\setcounter{equation}{0}
\setcounter{enumi}{0}
\setcounter{enumii}{0}
\setcounter{enumiii}{0}
\setcounter{enumiv}{0}
\setcounter{footnote}{0}
\setcounter{mpfootnote}{0}
\setcounter{part}{0}
\setcounter{chapter}{3}
\setcounter{section}{3}
\setcounter{subsection}{2}
\setcounter{subsubsection}{0}
\setcounter{paragraph}{0}
\setcounter{subparagraph}{0}
\setcounter{figure}{0}
\setcounter{table}{0}
\setcounter{lstnumber}{1}
\setcounter{float@type}{8}
\setcounter{ContinuedFloat}{0}
\setcounter{lofdepth}{1}
\setcounter{lotdepth}{1}
\setcounter{@pps}{0}
\setcounter{@ppsavesec}{0}
\setcounter{@ppsaveapp}{0}
\setcounter{LT@tables}{0}
\setcounter{LT@chunks}{0}
\setcounter{parentequation}{0}
\setcounter{AlgoLine}{0}
\setcounter{algocfline}{0}
\setcounter{algocfproc}{0}
\setcounter{algocf}{0}
\setcounter{AM@survey}{0}
\setcounter{Item}{0}
\setcounter{Hfootnote}{0}
\setcounter{bookmark@seq@number}{15}
\setcounter{lips@count}{0}
\setcounter{lstlisting}{0}
\setcounter{section@level}{0}
}
