\relax 
\citation{erich_guenther}
\@writefile{loa}{\addvspace {10\p@ }}
\@writefile{toc}{\contentsline {chapter}{\numberline {5}Prototype}{19}{chapter.34}}
\@writefile{lof}{\addvspace {10\p@ }}
\@writefile{lot}{\addvspace {10\p@ }}
\@writefile{lol}{\addvspace {10\p@ }}
\@writefile{toc}{\contentsline {section}{\numberline {5.1}Used Implementation}{19}{section.35}}
\@writefile{lof}{\contentsline {figure}{\numberline {13}{\ignorespaces Class Diagram Bayes Implementation}}{20}{figure.caption.36}}
\providecommand*\caption@xref[2]{\@setref\relax\@undefined{#1}}
\newlabel{fig_classdiagram}{{13}{20}{Class Diagram Bayes Implementation\relax }{figure.caption.36}{}}
\@writefile{toc}{\contentsline {section}{\numberline {5.2}Architecture}{20}{section.37}}
\@writefile{lof}{\contentsline {figure}{\numberline {14}{\ignorespaces Prototype Architecture}}{22}{figure.caption.38}}
\newlabel{fig_prototype_architecture}{{14}{22}{Prototype Architecture\relax }{figure.caption.38}{}}
\@writefile{toc}{\contentsline {section}{\numberline {5.3}User interface}{23}{section.39}}
\@writefile{lof}{\contentsline {figure}{\numberline {15}{\ignorespaces Prototype GUI Home}}{23}{figure.caption.40}}
\newlabel{fig_prototype_gui_home}{{15}{23}{Prototype GUI Home\relax }{figure.caption.40}{}}
\@writefile{lof}{\contentsline {figure}{\numberline {16}{\ignorespaces Prototype GUI About}}{24}{figure.caption.41}}
\newlabel{fig_prototype_gui_about}{{16}{24}{Prototype GUI About\relax }{figure.caption.41}{}}
\@writefile{lof}{\contentsline {figure}{\numberline {17}{\ignorespaces Prototype GUI Check Mails}}{24}{figure.caption.42}}
\newlabel{fig_prototype_gui_checkmails}{{17}{24}{Prototype GUI Check Mails\relax }{figure.caption.42}{}}
\@writefile{lof}{\contentsline {figure}{\numberline {18}{\ignorespaces Prototype GUI Check Mails Result}}{25}{figure.caption.43}}
\newlabel{fig_prototype_gui_checkmails_result}{{18}{25}{Prototype GUI Check Mails Result\relax }{figure.caption.43}{}}
\@writefile{lof}{\contentsline {figure}{\numberline {19}{\ignorespaces Prototype GUI Statistics}}{25}{figure.caption.44}}
\newlabel{fig_prototype_gui_statistics}{{19}{25}{Prototype GUI Statistics\relax }{figure.caption.44}{}}
\@setckpt{prototype}{
\setcounter{page}{26}
\setcounter{equation}{0}
\setcounter{enumi}{0}
\setcounter{enumii}{0}
\setcounter{enumiii}{0}
\setcounter{enumiv}{0}
\setcounter{footnote}{0}
\setcounter{mpfootnote}{0}
\setcounter{part}{0}
\setcounter{chapter}{5}
\setcounter{section}{3}
\setcounter{subsection}{0}
\setcounter{subsubsection}{0}
\setcounter{paragraph}{0}
\setcounter{subparagraph}{0}
\setcounter{figure}{19}
\setcounter{table}{0}
\setcounter{lstnumber}{1}
\setcounter{float@type}{8}
\setcounter{ContinuedFloat}{0}
\setcounter{lofdepth}{1}
\setcounter{lotdepth}{1}
\setcounter{@pps}{0}
\setcounter{@ppsavesec}{0}
\setcounter{@ppsaveapp}{0}
\setcounter{LT@tables}{0}
\setcounter{LT@chunks}{0}
\setcounter{parentequation}{0}
\setcounter{AlgoLine}{0}
\setcounter{algocfline}{0}
\setcounter{algocfproc}{0}
\setcounter{algocf}{0}
\setcounter{AM@survey}{0}
\setcounter{Item}{0}
\setcounter{Hfootnote}{0}
\setcounter{bookmark@seq@number}{25}
\setcounter{lips@count}{0}
\setcounter{lstlisting}{0}
\setcounter{section@level}{0}
}
