\relax 
\@writefile{loa}{\addvspace {10\p@ }}
\@writefile{toc}{\contentsline {chapter}{\numberline {4}Result}{12}{chapter.16}}
\@writefile{lof}{\addvspace {10\p@ }}
\@writefile{lot}{\addvspace {10\p@ }}
\@writefile{lol}{\addvspace {10\p@ }}
\@writefile{toc}{\contentsline {section}{\numberline {4.1}Statistics}{12}{section.17}}
\@writefile{toc}{\contentsline {subsection}{\numberline {4.1.1}PegaSoS Results}{12}{subsection.18}}
\@writefile{toc}{\contentsline {subsection}{\numberline {4.1.2}DCD Results}{12}{subsection.23}}
\@writefile{toc}{\contentsline {subsection}{\numberline {4.1.3}Naive Bayes Results}{12}{subsection.28}}
\@writefile{toc}{\contentsline {section}{\numberline {4.2}Comparison}{12}{section.33}}
\@writefile{lof}{\contentsline {figure}{\numberline {1}{\ignorespaces feature amount - PegaSoS\relax }}{13}{figure.caption.19}}
\@writefile{lof}{\contentsline {figure}{\numberline {2}{\ignorespaces Total average classification time - PegaSoS\relax }}{13}{figure.caption.20}}
\@writefile{lof}{\contentsline {figure}{\numberline {3}{\ignorespaces Total average training time - PegaSoS\relax }}{14}{figure.caption.21}}
\@writefile{lof}{\contentsline {figure}{\numberline {4}{\ignorespaces Total average errorrate - PegaSoS\relax }}{14}{figure.caption.22}}
\@writefile{lof}{\contentsline {figure}{\numberline {5}{\ignorespaces feature amount - DCD\relax }}{15}{figure.caption.24}}
\@writefile{lof}{\contentsline {figure}{\numberline {6}{\ignorespaces Total average classification time - DCD\relax }}{15}{figure.caption.25}}
\@writefile{lof}{\contentsline {figure}{\numberline {7}{\ignorespaces Total average training time - DCD\relax }}{16}{figure.caption.26}}
\@writefile{lof}{\contentsline {figure}{\numberline {8}{\ignorespaces Total average errorrate - DCD\relax }}{16}{figure.caption.27}}
\@writefile{lof}{\contentsline {figure}{\numberline {9}{\ignorespaces Feature amount in cross validation - Naive\relax }}{17}{figure.caption.29}}
\@writefile{lof}{\contentsline {figure}{\numberline {10}{\ignorespaces Total Average Error Rate - Naive\relax }}{17}{figure.caption.30}}
\@writefile{lof}{\contentsline {figure}{\numberline {11}{\ignorespaces Total Training Time - Naive\relax }}{18}{figure.caption.31}}
\@writefile{lof}{\contentsline {figure}{\numberline {12}{\ignorespaces Total average alassification time - Naive\relax }}{18}{figure.caption.32}}
\@setckpt{Result}{
\setcounter{page}{19}
\setcounter{equation}{0}
\setcounter{enumi}{0}
\setcounter{enumii}{0}
\setcounter{enumiii}{0}
\setcounter{enumiv}{0}
\setcounter{footnote}{0}
\setcounter{mpfootnote}{0}
\setcounter{part}{0}
\setcounter{chapter}{4}
\setcounter{section}{2}
\setcounter{subsection}{0}
\setcounter{subsubsection}{0}
\setcounter{paragraph}{0}
\setcounter{subparagraph}{0}
\setcounter{figure}{12}
\setcounter{table}{0}
\setcounter{lstnumber}{1}
\setcounter{float@type}{8}
\setcounter{ContinuedFloat}{0}
\setcounter{lofdepth}{1}
\setcounter{lotdepth}{1}
\setcounter{@pps}{0}
\setcounter{@ppsavesec}{0}
\setcounter{@ppsaveapp}{0}
\setcounter{LT@tables}{0}
\setcounter{LT@chunks}{0}
\setcounter{parentequation}{0}
\setcounter{AlgoLine}{0}
\setcounter{algocfline}{0}
\setcounter{algocfproc}{0}
\setcounter{algocf}{0}
\setcounter{AM@survey}{0}
\setcounter{Item}{0}
\setcounter{Hfootnote}{0}
\setcounter{bookmark@seq@number}{21}
\setcounter{lips@count}{0}
\setcounter{lstlisting}{0}
\setcounter{section@level}{0}
}
